[
  {
    "city": "Pune",
    "lat": 18.5167,
    "lon": 73.8562,
    "country": "India"
  },
  {
    "city": "Delhi",
    "lat": 28.679,
    "lon": 77.0697,
    "country": "India"
  },
  {
    "city": "Mumbai",
    "lat": 19.076,
    "lon": 72.8774,
    "country": "India"
  },
  {
    "city": "Pindwara",
    "lat": 24.7945,
    "lon": 73.055,
    "country": "India"
  },
  {
    "city": "Raipur",
    "lat": 21.25,
    "lon": 81.6299,
    "country": "India"
  },
  {
    "city": "London",
    "lat": 51.5098,
    "lon": -0.118,
    "country": "UK"
  },
  {
    "city": "York",
    "lat": 53.9583,
    "lon": -1.0802,
    "country": "UK"
  },
  {
    "city": "Sunderland",
    "lat": 54.9061,
    "lon": -1.3811,
    "country": "UK"
  },
  {
    "city": "Truro",
    "lat": 50.2599,
    "lon": -5.051,
    "country": "UK"
  },
  {
    "city": "California",
    "lat": 36.7782,
    "lon": -119.4179,
    "country": "USA"
  },
  {
    "city": "Texas",
    "lat": 31,
    "lon": -100,
    "country": "USA"
  },
  {
    "city": "New York",
    "lat": 43,
    "lon": -75,
    "country": "USA"
  }
]
